<?xml version="1.0" encoding="iso-8859-1"?>
<!-- Generator: Adobe Illustrator 19.0.0, SVG Export Plug-In . SVG Version: 6.00 Build 0)  -->
<svg version="1.1" id="Dot2" xmlns="http://www.w3.org/2000/svg" xmlns:xlink="http://www.w3.org/1999/xlink" x="0px" y="0px"
	 viewBox="0 0 262.788 199.238" style="enable-background:new 0 0 262.788 199.238;" xml:space="preserve">
<path style="fill:#060505;" d="M119.833,13.108c0.45,0.342,1.09,0.74,1.921,1.012c1.984,0.649,3.731,0.144,4.413-0.095
	c0.898-0.173,2.259-0.575,3.583-1.583c0.478-0.364,1.295-0.975,1.917-2.083c0.366-0.652,0.939-1.895,0.894-3.479
	c-0.081-2.854-2.254-5.945-5.41-6.64c-2.488-0.548-4.512,0.629-5.067,0.952c-2.428,1.413-3.268,3.703-3.525,4.439
	c-0.25,0.715-1.087,3.118,0.015,5.606C118.959,12.105,119.467,12.725,119.833,13.108z"/>
</svg>
